FINAL INDIVIDUAL REPORT – STA 9750 Submission Material
…
[1] 55

5. Diagnostic Assessment: Can Year-to-Year Change Be Estimated?

Before attempting to explain Florida’s and West Virginia’s unusual patterns, it is necessary to assess whether the data structure supports formal year-to-year trend estimation at the state level.

Code

brfss_clean %>%
group_by(state) %>%
summarise(n_years = n_distinct(year)) %>%
arrange(n_years)

# A tibble: 55 × 2
   state          n_years
   <chr>            <int>
 1 Virgin Islands       5
 2 Guam                11
 3 Puerto Rico         12
 4 Florida             13
 5 Kentucky            13
 6 New Jersey          13
 7 Pennsylvania        13
 8 Tennessee           13
 9 Alabama             14
10 Alaska              14
# ℹ 45 more rows
…
